0000.000 (0) Opened log file at time: Tue, 06 Feb 2018 06:14:14 +0000 on http://www.anxietyaustralia.com.au
0000.001 (0) UpdraftPlus WordPress backup plugin (https://updraftplus.com): 1.13.6 WP: 4.8.5 PHP: 5.4.45 (cgi-fcgi, Linux carbon.flexwebhosting.com.au 2.6.32-773.26.1.lve1.4.35.el6.x86_64 #1 SMP Tue Sep 26 06:34:34 EDT 2017 x86_64) MySQL: 5.6.37 WPLANG: en_US Server: Apache safe_mode: 0 max_execution_time: 900 memory_limit: 512M (used: 24.4M | 26.3M) multisite: N openssl: OpenSSL 1.0.1e-fips 11 Feb 2013 mcrypt: Y LANG:  ZipArchive::addFile: Y
0000.002 (0) Free space on disk containing Updraft's temporary directory: 96987.2 MB
0000.003 (0) Tasks: Backup files: 1 (schedule: unset) Backup DB: 1 (schedule: unset)
0000.012 (0) Requesting semaphore lock (fd) (apparently not via scheduler)
0000.013 (0) Set semaphore last lock (fd) time to 2018-02-06 06:14:14
0000.014 (0) Semaphore lock (fd) complete
0000.016 (0) Backup run: resumption=0, nonce=9756e53a7031, begun at=1517897654 (0s ago), job type=backup
0000.017 (0) Scheduling a resumption (1) after 300 seconds (1517897954) in case this run gets aborted
0000.131 (0) Checking if we have a zip executable available
0000.132 (0) Creation of backups of directories: beginning
0000.134 (0) Beginning creation of dump of plugins (split every: 400 MB)
0000.724 (0) Total entities for the zip file: 501 directories, 3215 files (0 skipped as non-modified), 54.7 MB
0000.757 (0) Zip: backup_2018-02-06-1714_wwwanxietyaustraliacomau_9756e53a7031-plugins.zip.tmp: 100 files added (on-disk size: 0 KB)
0000.765 (0) Zip: backup_2018-02-06-1714_wwwanxietyaustraliacomau_9756e53a7031-plugins.zip.tmp: 200 files added (on-disk size: 0 KB)
0000.778 (0) Zip: backup_2018-02-06-1714_wwwanxietyaustraliacomau_9756e53a7031-plugins.zip.tmp: 300 files added (on-disk size: 0 KB)
0000.784 (0) Zip: backup_2018-02-06-1714_wwwanxietyaustraliacomau_9756e53a7031-plugins.zip.tmp: 400 files added (on-disk size: 0 KB)
0000.792 (0) Zip: backup_2018-02-06-1714_wwwanxietyaustraliacomau_9756e53a7031-plugins.zip.tmp: 500 files added (on-disk size: 0 KB)
0000.810 (0) Adding batch to zip file (UpdraftPlus_ZipArchive): over 500 files added on this batch (5.6 MB, 3215 files batched, 501 (501) added so far); re-opening (prior size: 0 KB)
0002.552 (0) Zip: backup_2018-02-06-1714_wwwanxietyaustraliacomau_9756e53a7031-plugins.zip.tmp: 600 files added (on-disk size: 2007.2 KB)
0002.559 (0) Zip: backup_2018-02-06-1714_wwwanxietyaustraliacomau_9756e53a7031-plugins.zip.tmp: 700 files added (on-disk size: 2007.2 KB)
0002.567 (0) Zip: backup_2018-02-06-1714_wwwanxietyaustraliacomau_9756e53a7031-plugins.zip.tmp: 800 files added (on-disk size: 2007.2 KB)
0002.575 (0) Zip: backup_2018-02-06-1714_wwwanxietyaustraliacomau_9756e53a7031-plugins.zip.tmp: 900 files added (on-disk size: 2007.2 KB)
0002.584 (0) Zip: backup_2018-02-06-1714_wwwanxietyaustraliacomau_9756e53a7031-plugins.zip.tmp: 1000 files added (on-disk size: 2007.2 KB)
0002.585 (0) Adding batch to zip file (UpdraftPlus_ZipArchive): over 500 files added on this batch (3.9 MB, 3215 files batched, 501 (1002) added so far); re-opening (prior size: 2007.2 KB)
0004.735 (0) Zip: backup_2018-02-06-1714_wwwanxietyaustraliacomau_9756e53a7031-plugins.zip.tmp: 1100 files added (on-disk size: 3300.1 KB)
0004.744 (0) Zip: backup_2018-02-06-1714_wwwanxietyaustraliacomau_9756e53a7031-plugins.zip.tmp: 1200 files added (on-disk size: 3300.1 KB)
0004.754 (0) Zip: backup_2018-02-06-1714_wwwanxietyaustraliacomau_9756e53a7031-plugins.zip.tmp: 1300 files added (on-disk size: 3300.1 KB)
0004.761 (0) Zip: backup_2018-02-06-1714_wwwanxietyaustraliacomau_9756e53a7031-plugins.zip.tmp: 1400 files added (on-disk size: 3300.1 KB)
0004.769 (0) Zip: backup_2018-02-06-1714_wwwanxietyaustraliacomau_9756e53a7031-plugins.zip.tmp: 1500 files added (on-disk size: 3300.1 KB)
0004.770 (0) Adding batch to zip file (UpdraftPlus_ZipArchive): over 500 files added on this batch (15.2 MB, 3215 files batched, 501 (1503) added so far); re-opening (prior size: 3300.1 KB)
0011.451 (0) Zip: backup_2018-02-06-1714_wwwanxietyaustraliacomau_9756e53a7031-plugins.zip.tmp: 1600 files added (on-disk size: 7245.8 KB)
0011.631 (0) Zip: backup_2018-02-06-1714_wwwanxietyaustraliacomau_9756e53a7031-plugins.zip.tmp: 1700 files added (on-disk size: 7245.8 KB)
0011.650 (0) Zip: backup_2018-02-06-1714_wwwanxietyaustraliacomau_9756e53a7031-plugins.zip.tmp: 1800 files added (on-disk size: 7245.8 KB)
0011.661 (0) Zip: backup_2018-02-06-1714_wwwanxietyaustraliacomau_9756e53a7031-plugins.zip.tmp: 1900 files added (on-disk size: 7245.8 KB)
0011.683 (0) Zip: backup_2018-02-06-1714_wwwanxietyaustraliacomau_9756e53a7031-plugins.zip.tmp: 2000 files added (on-disk size: 7245.8 KB)
0011.687 (0) Adding batch to zip file (UpdraftPlus_ZipArchive): over 500 files added on this batch (15.1 MB, 3215 files batched, 501 (2004) added so far); re-opening (prior size: 7245.8 KB)
0015.237 (0) Zip: backup_2018-02-06-1714_wwwanxietyaustraliacomau_9756e53a7031-plugins.zip.tmp: 2100 files added (on-disk size: 12337.1 KB)
0016.672 (0) Zip: backup_2018-02-06-1714_wwwanxietyaustraliacomau_9756e53a7031-plugins.zip.tmp: 2200 files added (on-disk size: 12337.1 KB)
0016.702 (0) Zip: backup_2018-02-06-1714_wwwanxietyaustraliacomau_9756e53a7031-plugins.zip.tmp: 2300 files added (on-disk size: 12337.1 KB)
0016.733 (0) Zip: backup_2018-02-06-1714_wwwanxietyaustraliacomau_9756e53a7031-plugins.zip.tmp: 2400 files added (on-disk size: 12337.1 KB)
0016.776 (0) Zip: backup_2018-02-06-1714_wwwanxietyaustraliacomau_9756e53a7031-plugins.zip.tmp: 2500 files added (on-disk size: 12337.1 KB)
0016.782 (0) Adding batch to zip file (UpdraftPlus_ZipArchive): over 500 files added on this batch (8.4 MB, 3215 files batched, 501 (2505) added so far); re-opening (prior size: 12337.1 KB)
0021.001 (0) Zip: backup_2018-02-06-1714_wwwanxietyaustraliacomau_9756e53a7031-plugins.zip.tmp: 2600 files added (on-disk size: 14872.8 KB)
0021.565 (0) Zip: backup_2018-02-06-1714_wwwanxietyaustraliacomau_9756e53a7031-plugins.zip.tmp: 2700 files added (on-disk size: 14872.8 KB)
0021.574 (0) Zip: backup_2018-02-06-1714_wwwanxietyaustraliacomau_9756e53a7031-plugins.zip.tmp: 2800 files added (on-disk size: 14872.8 KB)
0021.585 (0) Zip: backup_2018-02-06-1714_wwwanxietyaustraliacomau_9756e53a7031-plugins.zip.tmp: 2900 files added (on-disk size: 14872.8 KB)
0021.595 (0) Zip: backup_2018-02-06-1714_wwwanxietyaustraliacomau_9756e53a7031-plugins.zip.tmp: 3000 files added (on-disk size: 14872.8 KB)
0021.596 (0) Adding batch to zip file (UpdraftPlus_ZipArchive): over 500 files added on this batch (4.6 MB, 3215 files batched, 501 (3006) added so far); re-opening (prior size: 14872.8 KB)
0024.835 (0) Zip: backup_2018-02-06-1714_wwwanxietyaustraliacomau_9756e53a7031-plugins.zip.tmp: 3100 files added (on-disk size: 16630.3 KB)
0025.322 (0) Zip: backup_2018-02-06-1714_wwwanxietyaustraliacomau_9756e53a7031-plugins.zip.tmp: 3200 files added (on-disk size: 16630.3 KB)
0028.212 (0) Created plugins zip (0) - 17587.7 KB in 28.1 s (626.4 KB/s) (sha1: a85c60aec9ccd313cf47b99673a0e69a7c45721f, sha256: f8ce8c48e98c59f141f1cc5a1e90be456cc6c762870db1abcb4b16fce51c4547)
0028.214 (0) Beginning creation of dump of themes (split every: 400 MB)
0028.395 (0) Total entities for the zip file: 81 directories, 734 files (0 skipped as non-modified), 8.5 MB
0028.399 (0) Zip: backup_2018-02-06-1714_wwwanxietyaustraliacomau_9756e53a7031-themes.zip.tmp: 100 files added (on-disk size: 0 KB)
0028.404 (0) Zip: backup_2018-02-06-1714_wwwanxietyaustraliacomau_9756e53a7031-themes.zip.tmp: 200 files added (on-disk size: 0 KB)
0028.408 (0) Zip: backup_2018-02-06-1714_wwwanxietyaustraliacomau_9756e53a7031-themes.zip.tmp: 300 files added (on-disk size: 0 KB)
0028.413 (0) Zip: backup_2018-02-06-1714_wwwanxietyaustraliacomau_9756e53a7031-themes.zip.tmp: 400 files added (on-disk size: 0 KB)
0028.620 (0) Zip: backup_2018-02-06-1714_wwwanxietyaustraliacomau_9756e53a7031-themes.zip.tmp: 500 files added (on-disk size: 0 KB)
0028.621 (0) Adding batch to zip file (UpdraftPlus_ZipArchive): over 500 files added on this batch (5.7 MB, 734 files batched, 501 (501) added so far); re-opening (prior size: 0 KB)
0031.656 (0) Zip: backup_2018-02-06-1714_wwwanxietyaustraliacomau_9756e53a7031-themes.zip.tmp: 600 files added (on-disk size: 3464.8 KB)
0031.662 (0) Zip: backup_2018-02-06-1714_wwwanxietyaustraliacomau_9756e53a7031-themes.zip.tmp: 700 files added (on-disk size: 3464.8 KB)
0033.919 (0) Created themes zip (0) - 5187.9 KB in 5.7 s (909.5 KB/s) (sha1: 92dc4eb26e7b7ea9b0e21af7a0bd0f46a4af0c05, sha256: cb8c10493d96cddcc5682e133e74d7d463ff430092e2ca72116c237d30161660)
0033.929 (0) Exclusion option setting (uploads): backup*,*backups,backwpup*,wp-clone,snapshots
0033.929 (0) Looking for candidates to back up in: /home/anxiety1/public_html/wp-content/uploads
0034.008 (0) finding files: 2017: adding to list (1)
0034.009 (0) finding files: 2016: adding to list (2)
0034.009 (0) finding files: 2018: adding to list (3)
0034.010 (0) finding files: 2014: adding to list (4)
0034.011 (0) finding files: ad: adding to list (5)
0034.011 (0) finding files: 2011: adding to list (6)
0034.012 (0) finding files: 2013: adding to list (7)
0034.012 (0) finding files: wpcf7_captcha: adding to list (8)
0034.013 (0) finding files: 2012: adding to list (9)
0034.013 (0) finding files: 2015: adding to list (10)
0034.014 (0) Beginning creation of dump of uploads (split every: 400 MB)
0034.837 (0) Total entities for the zip file: 75 directories, 354 files (0 skipped as non-modified), 22.5 MB
0034.841 (0) Zip: backup_2018-02-06-1714_wwwanxietyaustraliacomau_9756e53a7031-uploads.zip.tmp: 100 files added (on-disk size: 0 KB)
0034.846 (0) Zip: backup_2018-02-06-1714_wwwanxietyaustraliacomau_9756e53a7031-uploads.zip.tmp: 200 files added (on-disk size: 0 KB)
0034.851 (0) Zip: backup_2018-02-06-1714_wwwanxietyaustraliacomau_9756e53a7031-uploads.zip.tmp: 300 files added (on-disk size: 0 KB)
0041.464 (0) Created uploads zip (0) - 22483.6 KB in 7.4 s (3018.3 KB/s) (sha1: 8e023bdf6c2225103bfc312e480c4f727e19d838, sha256: ead3ee01222d0eee3d80646fbc1bcd92df50ff1e938682263aca32dea85889b6)
0042.299 (0) Beginning backup of other directories found in the content directory (index: 0)
0042.300 (0) Exclusion option setting (others): upgrade,cache,updraft,backup*,*backups,mysql.sql,debug.log
0042.300 (0) Looking for candidates to back up in: /home/anxiety1/public_html/wp-content
0042.301 (0) finding files: uploads: skipping: this is the uploads directory
0042.301 (0) finding files: error_log: adding to list (1)
0042.302 (0) finding files: plugins: skipping: this is the plugins directory
0042.302 (0) finding files: updraft: skipping: this is the updraft directory
0042.303 (0) finding files: upgrade: skipping: excluded by options
0042.304 (0) finding files: themes: skipping: this is the themes directory
0042.304 (0) finding files: index.php: adding to list (2)
0042.306 (0) Total entities for the zip file: 0 directories, 2 files (0 skipped as non-modified), 0 MB
0042.506 (0) Created others zip (0) - 1.5 KB in 0.2 s (7.5 KB/s) (sha1: 485f6ff7ca7da33f264f9e82015f291edc6a9fb7, sha256: 2672c94bdb48179edf867ec1280454dc3216e97ade21ee91325bb957462ef26d)
0042.509 (0) Saving backup status to database (elements: 8)
0042.511 (0) Beginning creation of database dump (WordPress DB)
0042.516 (0) Table wp_options: Total expected rows (approximate): 361
0042.526 (0) Table wp_options: Total rows added: 357 in 0.01 seconds
0042.527 (0) Table wp_options: finishing file (backup_2018-02-06-1714_wwwanxietyaustraliacomau_9756e53a7031-db-table-wp_options.table.gz - 27.6 KB)
0042.529 (0) Table wp_users: Total expected rows (approximate): 4
0042.531 (0) Table wp_users: Total rows added: 4 in 0.00 seconds
0042.532 (0) Table wp_users: finishing file (backup_2018-02-06-1714_wwwanxietyaustraliacomau_9756e53a7031-db-table-wp_users.table.gz - 0.8 KB)
0042.534 (0) Table wp_usermeta: Total expected rows (approximate): 113
0042.537 (0) Table wp_usermeta: Total rows added: 113 in 0.00 seconds
0042.538 (0) Table wp_usermeta: finishing file (backup_2018-02-06-1714_wwwanxietyaustraliacomau_9756e53a7031-db-table-wp_usermeta.table.gz - 2.5 KB)
0042.540 (0) Table wp_commentmeta: Total expected rows (approximate): 203
0042.546 (0) Table wp_commentmeta: Total rows added: 203 in 0.00 seconds
0042.547 (0) Table wp_commentmeta: finishing file (backup_2018-02-06-1714_wwwanxietyaustraliacomau_9756e53a7031-db-table-wp_commentmeta.table.gz - 13.9 KB)
0042.549 (0) Table wp_comments: Total expected rows (approximate): 67
0042.555 (0) Table wp_comments: Total rows added: 67 in 0.01 seconds
0042.556 (0) Table wp_comments: finishing file (backup_2018-02-06-1714_wwwanxietyaustraliacomau_9756e53a7031-db-table-wp_comments.table.gz - 17.5 KB)
0042.559 (0) Table wp_links: Total expected rows (approximate): 0
0042.561 (0) Table wp_links: Total rows added: 0 in 0.00 seconds
0042.561 (0) Table wp_links: finishing file (backup_2018-02-06-1714_wwwanxietyaustraliacomau_9756e53a7031-db-table-wp_links.table.gz - 0.4 KB)
0042.564 (0) Table wp_postmeta: Total expected rows (approximate): 1018
0042.580 (0) Table wp_postmeta: Total rows added: 1018 in 0.02 seconds
0042.581 (0) Table wp_postmeta: finishing file (backup_2018-02-06-1714_wwwanxietyaustraliacomau_9756e53a7031-db-table-wp_postmeta.table.gz - 18.9 KB)
0042.588 (0) Table wp_posts: Total expected rows (approximate): 1117
0042.873 (0) Table wp_posts: Total rows added: 1117 in 0.28 seconds
0042.875 (0) Table wp_posts: finishing file (backup_2018-02-06-1714_wwwanxietyaustraliacomau_9756e53a7031-db-table-wp_posts.table.gz - 727.7 KB)
0042.877 (0) Table wp_term_relationships: Total expected rows (approximate): 95
0042.880 (0) Table wp_term_relationships: Total rows added: 95 in 0.00 seconds
0042.880 (0) Table wp_term_relationships: finishing file (backup_2018-02-06-1714_wwwanxietyaustraliacomau_9756e53a7031-db-table-wp_term_relationships.table.gz - 0.7 KB)
0042.883 (0) Table wp_term_taxonomy: Total expected rows (approximate): 44
0042.886 (0) Table wp_term_taxonomy: Total rows added: 44 in 0.00 seconds
0042.886 (0) Table wp_term_taxonomy: finishing file (backup_2018-02-06-1714_wwwanxietyaustraliacomau_9756e53a7031-db-table-wp_term_taxonomy.table.gz - 0.8 KB)
0042.889 (0) Table wp_termmeta: Total expected rows (approximate): 0
0042.891 (0) Table wp_termmeta: Total rows added: 0 in 0.00 seconds
0042.891 (0) Table wp_termmeta: finishing file (backup_2018-02-06-1714_wwwanxietyaustraliacomau_9756e53a7031-db-table-wp_termmeta.table.gz - 0.4 KB)
0042.894 (0) Table wp_terms: Total expected rows (approximate): 44
0042.896 (0) Table wp_terms: Total rows added: 44 in 0.00 seconds
0042.897 (0) Table wp_terms: finishing file (backup_2018-02-06-1714_wwwanxietyaustraliacomau_9756e53a7031-db-table-wp_terms.table.gz - 1 KB)
0042.900 (0) Table wp_booking: Total expected rows (approximate): 2
0042.954 (0) Table wp_booking: Total rows added: 2 in 0.05 seconds
0042.955 (0) Table wp_booking: finishing file (backup_2018-02-06-1714_wwwanxietyaustraliacomau_9756e53a7031-db-table-wp_booking.table.gz - 0.6 KB)
0042.958 (0) Table wp_bookingdates: Total expected rows (approximate): 4
0043.039 (0) Table wp_bookingdates: Total rows added: 4 in 0.08 seconds
0043.040 (0) Table wp_bookingdates: finishing file (backup_2018-02-06-1714_wwwanxietyaustraliacomau_9756e53a7031-db-table-wp_bookingdates.table.gz - 0.4 KB)
0043.043 (0) Table wp_redirection_404: Total expected rows (approximate): 208422
0043.044 (0) [Warning] Table wp_redirection_404 has very many rows (208422) - we hope your web hosting company gives you enough resources to dump out that table in the backup If not, you will need to either remove data from this table, or contact your hosting company to request more resources.
0061.032 (0) Table wp_redirection_404: Total rows added: 208422 in 17.99 seconds
0061.034 (0) Table wp_redirection_404: finishing file (backup_2018-02-06-1714_wwwanxietyaustraliacomau_9756e53a7031-db-table-wp_redirection_404.table.gz - 3842.9 KB)
0061.037 (0) Table wp_redirection_groups: Total expected rows (approximate): 2
0061.038 (0) Table wp_redirection_groups: Total rows added: 2 in 0.00 seconds
0061.039 (0) Table wp_redirection_groups: finishing file (backup_2018-02-06-1714_wwwanxietyaustraliacomau_9756e53a7031-db-table-wp_redirection_groups.table.gz - 0.4 KB)
0061.041 (0) Table wp_redirection_items: Total expected rows (approximate): 54
0061.049 (0) Table wp_redirection_items: Total rows added: 54 in 0.01 seconds
0061.050 (0) Table wp_redirection_items: finishing file (backup_2018-02-06-1714_wwwanxietyaustraliacomau_9756e53a7031-db-table-wp_redirection_items.table.gz - 2.2 KB)
0061.053 (0) Table wp_redirection_logs: Total expected rows (approximate): 7127
0061.593 (0) Table wp_redirection_logs: Total rows added: 7127 in 0.54 seconds
0061.594 (0) Table wp_redirection_logs: finishing file (backup_2018-02-06-1714_wwwanxietyaustraliacomau_9756e53a7031-db-table-wp_redirection_logs.table.gz - 149.7 KB)
0061.597 (0) Table wp_redirection_modules: Total expected rows (approximate): 2
0061.598 (0) Table wp_redirection_modules: Total rows added: 2 in 0.00 seconds
0061.599 (0) Table wp_redirection_modules: finishing file (backup_2018-02-06-1714_wwwanxietyaustraliacomau_9756e53a7031-db-table-wp_redirection_modules.table.gz - 0.4 KB)
0061.601 (0) Table wp_wfBadLeechers: Total expected rows (approximate): 411
0061.613 (0) Table wp_wfBadLeechers: Total rows added: 411 in 0.01 seconds
0061.614 (0) Table wp_wfBadLeechers: finishing file (backup_2018-02-06-1714_wwwanxietyaustraliacomau_9756e53a7031-db-table-wp_wfBadLeechers.table.gz - 3.6 KB)
0061.616 (0) Table wp_wfBlocks: Total expected rows (approximate): 0
0061.618 (0) Table wp_wfBlocks: Total rows added: 0 in 0.00 seconds
0061.618 (0) Table wp_wfBlocks: finishing file (backup_2018-02-06-1714_wwwanxietyaustraliacomau_9756e53a7031-db-table-wp_wfBlocks.table.gz - 0.3 KB)
0061.621 (0) Table wp_wfBlocksAdv: Total expected rows (approximate): 0
0061.622 (0) Table wp_wfBlocksAdv: Total rows added: 0 in 0.00 seconds
0061.623 (0) Table wp_wfBlocksAdv: finishing file (backup_2018-02-06-1714_wwwanxietyaustraliacomau_9756e53a7031-db-table-wp_wfBlocksAdv.table.gz - 0.3 KB)
0061.625 (0) Table wp_wfConfig: Total expected rows (approximate): 119
0061.630 (0) Table wp_wfConfig: Total rows added: 119 in 0.00 seconds
0061.631 (0) Table wp_wfConfig: finishing file (backup_2018-02-06-1714_wwwanxietyaustraliacomau_9756e53a7031-db-table-wp_wfConfig.table.gz - 16.4 KB)
0061.634 (0) Table wp_wfCrawlers: Total expected rows (approximate): 0
0061.635 (0) Table wp_wfCrawlers: Total rows added: 0 in 0.00 seconds
0061.636 (0) Table wp_wfCrawlers: finishing file (backup_2018-02-06-1714_wwwanxietyaustraliacomau_9756e53a7031-db-table-wp_wfCrawlers.table.gz - 0.3 KB)
0061.638 (0) Table wp_wfFileMods: Total expected rows (approximate): 3720
0061.723 (0) Table wp_wfFileMods: Total rows added: 3720 in 0.08 seconds
0061.724 (0) Table wp_wfFileMods: finishing file (backup_2018-02-06-1714_wwwanxietyaustraliacomau_9756e53a7031-db-table-wp_wfFileMods.table.gz - 167.3 KB)
0061.727 (0) Table wp_wfHits: Total expected rows (approximate): 638420
0061.728 (0) [Warning] Table wp_wfHits has very many rows (638420) - we hope your web hosting company gives you enough resources to dump out that table in the backup If not, you will need to either remove data from this table, or contact your hosting company to request more resources.
0144.927 (0) Table wp_wfHits: Total rows added: 638421 in 83.20 seconds
0144.929 (0) Table wp_wfHits: finishing file (backup_2018-02-06-1714_wwwanxietyaustraliacomau_9756e53a7031-db-table-wp_wfHits.table.gz - 18448.5 KB)
0144.931 (0) Table wp_wfHoover: Total expected rows (approximate): 3
0144.933 (0) Table wp_wfHoover: Total rows added: 3 in 0.00 seconds
0144.934 (0) Table wp_wfHoover: finishing file (backup_2018-02-06-1714_wwwanxietyaustraliacomau_9756e53a7031-db-table-wp_wfHoover.table.gz - 0.4 KB)
0144.936 (0) Table wp_wfIssues: Total expected rows (approximate): 0
0144.938 (0) Table wp_wfIssues: Total rows added: 0 in 0.00 seconds
0144.938 (0) Table wp_wfIssues: finishing file (backup_2018-02-06-1714_wwwanxietyaustraliacomau_9756e53a7031-db-table-wp_wfIssues.table.gz - 0.4 KB)
0144.940 (0) Table wp_wfLeechers: Total expected rows (approximate): 475752
0144.942 (0) [Warning] Table wp_wfLeechers has very many rows (475752) - we hope your web hosting company gives you enough resources to dump out that table in the backup If not, you will need to either remove data from this table, or contact your hosting company to request more resources.
0155.228 (0) Table wp_wfLeechers: Total rows added: 475753 in 10.29 seconds
0155.230 (0) Table wp_wfLeechers: finishing file (backup_2018-02-06-1714_wwwanxietyaustraliacomau_9756e53a7031-db-table-wp_wfLeechers.table.gz - 2933.8 KB)
0155.233 (0) Table wp_wfLockedOut: Total expected rows (approximate): 0
0155.235 (0) Table wp_wfLockedOut: Total rows added: 0 in 0.00 seconds
0155.235 (0) Table wp_wfLockedOut: finishing file (backup_2018-02-06-1714_wwwanxietyaustraliacomau_9756e53a7031-db-table-wp_wfLockedOut.table.gz - 0.3 KB)
0155.238 (0) Table wp_wfLocs: Total expected rows (approximate): 0
0155.240 (0) Table wp_wfLocs: Total rows added: 0 in 0.00 seconds
0155.240 (0) Table wp_wfLocs: finishing file (backup_2018-02-06-1714_wwwanxietyaustraliacomau_9756e53a7031-db-table-wp_wfLocs.table.gz - 0.3 KB)
0155.243 (0) Table wp_wfLogins: Total expected rows (approximate): 842116
0155.244 (0) [Warning] Table wp_wfLogins has very many rows (842116) - we hope your web hosting company gives you enough resources to dump out that table in the backup If not, you will need to either remove data from this table, or contact your hosting company to request more resources.
0250.498 (0) Table wp_wfLogins: Total rows added: 842116 in 95.25 seconds
0250.500 (0) Table wp_wfLogins: finishing file (backup_2018-02-06-1714_wwwanxietyaustraliacomau_9756e53a7031-db-table-wp_wfLogins.table.gz - 9241.2 KB)
0250.503 (0) Table wp_wfNet404s: Total expected rows (approximate): 5
0250.505 (0) Table wp_wfNet404s: Total rows added: 5 in 0.00 seconds
0250.506 (0) Table wp_wfNet404s: finishing file (backup_2018-02-06-1714_wwwanxietyaustraliacomau_9756e53a7031-db-table-wp_wfNet404s.table.gz - 0.5 KB)
0250.509 (0) Table wp_wfReverseCache: Total expected rows (approximate): 7
0250.511 (0) Table wp_wfReverseCache: Total rows added: 7 in 0.00 seconds
0250.511 (0) Table wp_wfReverseCache: finishing file (backup_2018-02-06-1714_wwwanxietyaustraliacomau_9756e53a7031-db-table-wp_wfReverseCache.table.gz - 0.6 KB)
0250.514 (0) Table wp_wfScanners: Total expected rows (approximate): 19429
0250.777 (0) Table wp_wfScanners: Total rows added: 19429 in 0.26 seconds
0250.778 (0) Table wp_wfScanners: finishing file (backup_2018-02-06-1714_wwwanxietyaustraliacomau_9756e53a7031-db-table-wp_wfScanners.table.gz - 124.4 KB)
0250.781 (0) Table wp_wfStatus: Total expected rows (approximate): 13319
0251.505 (0) Table wp_wfStatus: Total rows added: 13319 in 0.72 seconds
0251.506 (0) Table wp_wfStatus: finishing file (backup_2018-02-06-1714_wwwanxietyaustraliacomau_9756e53a7031-db-table-wp_wfStatus.table.gz - 183.4 KB)
0251.509 (0) Table wp_wfThrottleLog: Total expected rows (approximate): 67
0251.521 (0) Table wp_wfThrottleLog: Total rows added: 67 in 0.01 seconds
0251.521 (0) Table wp_wfThrottleLog: finishing file (backup_2018-02-06-1714_wwwanxietyaustraliacomau_9756e53a7031-db-table-wp_wfThrottleLog.table.gz - 1.7 KB)
0251.524 (0) Table wp_wfVulnScanners: Total expected rows (approximate): 0
0251.525 (0) Table wp_wfVulnScanners: Total rows added: 0 in 0.00 seconds
0251.526 (0) Table wp_wfVulnScanners: finishing file (backup_2018-02-06-1714_wwwanxietyaustraliacomau_9756e53a7031-db-table-wp_wfVulnScanners.table.gz - 0.3 KB)
0251.528 (0) backup_2018-02-06-1714_wwwanxietyaustraliacomau_9756e53a7031-db-table-wp_options.table.gz (1/38): adding to final database dump
0251.534 (0) backup_2018-02-06-1714_wwwanxietyaustraliacomau_9756e53a7031-db-table-wp_users.table.gz (2/38): adding to final database dump
0251.535 (0) backup_2018-02-06-1714_wwwanxietyaustraliacomau_9756e53a7031-db-table-wp_usermeta.table.gz (3/38): adding to final database dump
0251.536 (0) backup_2018-02-06-1714_wwwanxietyaustraliacomau_9756e53a7031-db-table-wp_commentmeta.table.gz (4/38): adding to final database dump
0251.540 (0) backup_2018-02-06-1714_wwwanxietyaustraliacomau_9756e53a7031-db-table-wp_comments.table.gz (5/38): adding to final database dump
0251.544 (0) backup_2018-02-06-1714_wwwanxietyaustraliacomau_9756e53a7031-db-table-wp_links.table.gz (6/38): adding to final database dump
0251.544 (0) backup_2018-02-06-1714_wwwanxietyaustraliacomau_9756e53a7031-db-table-wp_postmeta.table.gz (7/38): adding to final database dump
0251.553 (0) backup_2018-02-06-1714_wwwanxietyaustraliacomau_9756e53a7031-db-table-wp_posts.table.gz (8/38): adding to final database dump
0251.715 (0) backup_2018-02-06-1714_wwwanxietyaustraliacomau_9756e53a7031-db-table-wp_term_relationships.table.gz (9/38): adding to final database dump
0251.717 (0) backup_2018-02-06-1714_wwwanxietyaustraliacomau_9756e53a7031-db-table-wp_term_taxonomy.table.gz (10/38): adding to final database dump
0251.718 (0) backup_2018-02-06-1714_wwwanxietyaustraliacomau_9756e53a7031-db-table-wp_termmeta.table.gz (11/38): adding to final database dump
0251.718 (0) backup_2018-02-06-1714_wwwanxietyaustraliacomau_9756e53a7031-db-table-wp_terms.table.gz (12/38): adding to final database dump
0251.719 (0) backup_2018-02-06-1714_wwwanxietyaustraliacomau_9756e53a7031-db-table-wp_booking.table.gz (13/38): adding to final database dump
0251.720 (0) backup_2018-02-06-1714_wwwanxietyaustraliacomau_9756e53a7031-db-table-wp_bookingdates.table.gz (14/38): adding to final database dump
0251.721 (0) backup_2018-02-06-1714_wwwanxietyaustraliacomau_9756e53a7031-db-table-wp_redirection_404.table.gz (15/38): adding to final database dump
0253.772 (0) backup_2018-02-06-1714_wwwanxietyaustraliacomau_9756e53a7031-db-table-wp_redirection_groups.table.gz (16/38): adding to final database dump
0253.773 (0) backup_2018-02-06-1714_wwwanxietyaustraliacomau_9756e53a7031-db-table-wp_redirection_items.table.gz (17/38): adding to final database dump
0253.774 (0) backup_2018-02-06-1714_wwwanxietyaustraliacomau_9756e53a7031-db-table-wp_redirection_logs.table.gz (18/38): adding to final database dump
0253.859 (0) backup_2018-02-06-1714_wwwanxietyaustraliacomau_9756e53a7031-db-table-wp_redirection_modules.table.gz (19/38): adding to final database dump
0253.860 (0) backup_2018-02-06-1714_wwwanxietyaustraliacomau_9756e53a7031-db-table-wp_wfBadLeechers.table.gz (20/38): adding to final database dump
0253.862 (0) backup_2018-02-06-1714_wwwanxietyaustraliacomau_9756e53a7031-db-table-wp_wfBlocks.table.gz (21/38): adding to final database dump
0253.863 (0) backup_2018-02-06-1714_wwwanxietyaustraliacomau_9756e53a7031-db-table-wp_wfBlocksAdv.table.gz (22/38): adding to final database dump
0253.864 (0) backup_2018-02-06-1714_wwwanxietyaustraliacomau_9756e53a7031-db-table-wp_wfConfig.table.gz (23/38): adding to final database dump
0253.867 (0) backup_2018-02-06-1714_wwwanxietyaustraliacomau_9756e53a7031-db-table-wp_wfCrawlers.table.gz (24/38): adding to final database dump
0253.868 (0) backup_2018-02-06-1714_wwwanxietyaustraliacomau_9756e53a7031-db-table-wp_wfFileMods.table.gz (25/38): adding to final database dump
0253.900 (0) backup_2018-02-06-1714_wwwanxietyaustraliacomau_9756e53a7031-db-table-wp_wfHits.table.gz (26/38): adding to final database dump
0262.107 (0) backup_2018-02-06-1714_wwwanxietyaustraliacomau_9756e53a7031-db-table-wp_wfHoover.table.gz (27/38): adding to final database dump
0262.109 (0) backup_2018-02-06-1714_wwwanxietyaustraliacomau_9756e53a7031-db-table-wp_wfIssues.table.gz (28/38): adding to final database dump
0262.109 (0) backup_2018-02-06-1714_wwwanxietyaustraliacomau_9756e53a7031-db-table-wp_wfLeechers.table.gz (29/38): adding to final database dump
0265.309 (0) backup_2018-02-06-1714_wwwanxietyaustraliacomau_9756e53a7031-db-table-wp_wfLockedOut.table.gz (30/38): adding to final database dump
0265.310 (0) backup_2018-02-06-1714_wwwanxietyaustraliacomau_9756e53a7031-db-table-wp_wfLocs.table.gz (31/38): adding to final database dump
0265.311 (0) backup_2018-02-06-1714_wwwanxietyaustraliacomau_9756e53a7031-db-table-wp_wfLogins.table.gz (32/38): adding to final database dump
0272.090 (0) backup_2018-02-06-1714_wwwanxietyaustraliacomau_9756e53a7031-db-table-wp_wfNet404s.table.gz (33/38): adding to final database dump
0272.091 (0) backup_2018-02-06-1714_wwwanxietyaustraliacomau_9756e53a7031-db-table-wp_wfReverseCache.table.gz (34/38): adding to final database dump
0272.092 (0) backup_2018-02-06-1714_wwwanxietyaustraliacomau_9756e53a7031-db-table-wp_wfScanners.table.gz (35/38): adding to final database dump
0272.214 (0) backup_2018-02-06-1714_wwwanxietyaustraliacomau_9756e53a7031-db-table-wp_wfStatus.table.gz (36/38): adding to final database dump
0272.359 (0) backup_2018-02-06-1714_wwwanxietyaustraliacomau_9756e53a7031-db-table-wp_wfThrottleLog.table.gz (37/38): adding to final database dump
0272.360 (0) backup_2018-02-06-1714_wwwanxietyaustraliacomau_9756e53a7031-db-table-wp_wfVulnScanners.table.gz (38/38): adding to final database dump
0272.361 (0) backup_2018-02-06-1714_wwwanxietyaustraliacomau_9756e53a7031-db.gz: finished writing out complete database file (35920 KB)
0272.817 (0) Total database tables backed up: 38 (backup_2018-02-06-1714_wwwanxietyaustraliacomau_9756e53a7031-db.gz, size: 36790708, sha256)
0272.821 (0) backup_2018-02-06-1714_wwwanxietyaustraliacomau_9756e53a7031-plugins.zip: plugins: This file has not yet been successfully uploaded: will queue
0272.822 (0) backup_2018-02-06-1714_wwwanxietyaustraliacomau_9756e53a7031-themes.zip: themes: This file has not yet been successfully uploaded: will queue
0272.823 (0) backup_2018-02-06-1714_wwwanxietyaustraliacomau_9756e53a7031-uploads.zip: uploads: This file has not yet been successfully uploaded: will queue
0272.824 (0) backup_2018-02-06-1714_wwwanxietyaustraliacomau_9756e53a7031-others.zip: others: This file has not yet been successfully uploaded: will queue
0272.824 (0) backup_2018-02-06-1714_wwwanxietyaustraliacomau_9756e53a7031-db.gz: db: This file has not yet been successfully uploaded: will queue
0272.825 (0) Saving backup history. Total backup size: 79.3 MB
0272.827 (0) Requesting upload of the files that have not yet been successfully uploaded (5)
0272.852 (0) Cloud backup selection (1/1): none (last)
0272.853 (0) No remote despatch: user chose no remote backup service
0272.854 (0) Recording as successfully uploaded: backup_2018-02-06-1714_wwwanxietyaustraliacomau_9756e53a7031-plugins.zip (41be375a77eebd871d4be839109b4aec)
0272.858 (0) Recording as successfully uploaded: backup_2018-02-06-1714_wwwanxietyaustraliacomau_9756e53a7031-themes.zip (6cab3f6a91a6f35d7cf32f1c29a4f2a9)
0272.861 (0) Recording as successfully uploaded: backup_2018-02-06-1714_wwwanxietyaustraliacomau_9756e53a7031-uploads.zip (de898f08737d76f4e4f167eedfbc2393)
0272.865 (0) Recording as successfully uploaded: backup_2018-02-06-1714_wwwanxietyaustraliacomau_9756e53a7031-others.zip (ddb6fea52c38e42488e93c4cc42dbae6)
0272.868 (0) Recording as successfully uploaded: backup_2018-02-06-1714_wwwanxietyaustraliacomau_9756e53a7031-db.gz (8fa920d37825e307d333beb9b42899ff)
0272.872 (0) Retain: beginning examination of existing backup sets; user setting: retain_files=2, retain_db=2
0272.873 (0) Number of backup sets in history: 2; groups (db): 1
0272.874 (0) Examining (for databases) backup set with group_id=0, nonce=9756e53a7031, datestamp=1517897654 (Feb 06 2018 06:14:14)
0272.875 (0) This backup set is the backup set just made, so will not be deleted.
0272.875 (0) Examining (for databases) backup set with group_id=0, nonce=ad8720cd124d, datestamp=1504680268 (Sep 06 2017 06:44:28)
0272.875 (0) This backup set remains non-empty (f=1/d=1); will retain in history
0272.875 (0) Number of backup sets in history: 2; groups (files): 1
0272.876 (0) Examining (for files) backup set with nonce=9756e53a7031, datestamp=1517897654 (Feb 06 2018 06:14:14)
0272.876 (0) This backup set is the backup set just made, so will not be deleted.
0272.877 (0) This backup set is the backup set just made, so will not be deleted.
0272.877 (0) This backup set is the backup set just made, so will not be deleted.
0272.877 (0) This backup set is the backup set just made, so will not be deleted.
0272.877 (0) This backup set remains non-empty (f=1/d=1); will retain in history
0272.878 (0) Examining (for files) backup set with nonce=ad8720cd124d, datestamp=1504680268 (Sep 06 2017 06:44:28)
0272.878 (0) This backup set remains non-empty (f=1/d=1); will retain in history
0272.878 (0) Retain: saving new backup history (sets now: 2) and finishing retain operation
0272.881 (0) Resume backup (9756e53a7031, 0): finish run
0272.882 (0) Decremented the semaphore (fd) by 1
0272.883 (0) Semaphore (fd) unlocked
0272.883 (0) There were no errors in the uploads, so the 'resume' event (1) is being unscheduled
0272.886 (0) No email will/can be sent - the user has not configured an email address.
0272.887 (0) The backup apparently succeeded and is now complete
