0000.000 (0) Opened log file at time: Wed, 06 Sep 2017 06:44:28 +0000 on http://www.anxietyaustralia.com.au
0000.001 (0) UpdraftPlus WordPress backup plugin (https://updraftplus.com): 1.13.6 WP: 3.6 PHP: 5.4.45 (cgi-fcgi, Linux carbon.flexwebhosting.com.au 2.6.32-673.26.1.lve1.4.30.el6.x86_64 #1 SMP Wed Jun 21 19:37:37 EDT 2017 x86_64) MySQL: 5.6.35 WPLANG: en_US Server: Apache safe_mode: 0 max_execution_time: 900 memory_limit: 512M (used: 16.1M | 17.5M) multisite: N openssl: OpenSSL 1.0.1e-fips 11 Feb 2013 mcrypt: Y LANG:  ZipArchive::addFile: Y
0000.001 (0) Free space on disk containing Updraft's temporary directory: 124389.8 MB
0000.002 (0) Tasks: Backup files: 1 (schedule: unset) Backup DB: 1 (schedule: unset)
0000.003 (0) Semaphore (fd, wp_options) being initialised
0000.005 (0) Requesting semaphore lock (fd) (apparently not via scheduler)
0000.005 (0) Set semaphore last lock (fd) time to 2017-09-06 06:44:28
0000.006 (0) Semaphore lock (fd) complete
0000.008 (0) Backup run: resumption=0, nonce=ad8720cd124d, begun at=1504680268 (0s ago), job type=backup
0000.008 (0) Scheduling a resumption (1) after 300 seconds (1504680568) in case this run gets aborted
0000.030 (0) Checking if we have a zip executable available
0000.031 (0) Creation of backups of directories: beginning
0000.033 (0) Beginning creation of dump of plugins (split every: 400 MB)
0000.525 (0) Total entities for the zip file: 501 directories, 3199 files (0 skipped as non-modified), 53.5 MB
0000.532 (0) Zip: backup_2017-09-06-1644_wwwanxietyaustraliacomau_ad8720cd124d-plugins.zip.tmp: 100 files added (on-disk size: 0 KB)
0000.537 (0) Zip: backup_2017-09-06-1644_wwwanxietyaustraliacomau_ad8720cd124d-plugins.zip.tmp: 200 files added (on-disk size: 0 KB)
0000.542 (0) Zip: backup_2017-09-06-1644_wwwanxietyaustraliacomau_ad8720cd124d-plugins.zip.tmp: 300 files added (on-disk size: 0 KB)
0000.547 (0) Zip: backup_2017-09-06-1644_wwwanxietyaustraliacomau_ad8720cd124d-plugins.zip.tmp: 400 files added (on-disk size: 0 KB)
0000.553 (0) Zip: backup_2017-09-06-1644_wwwanxietyaustraliacomau_ad8720cd124d-plugins.zip.tmp: 500 files added (on-disk size: 0 KB)
0000.554 (0) Adding batch to zip file (UpdraftPlus_ZipArchive): over 500 files added on this batch (5.6 MB, 3199 files batched, 501 (501) added so far); re-opening (prior size: 0 KB)
0001.327 (0) Zip: backup_2017-09-06-1644_wwwanxietyaustraliacomau_ad8720cd124d-plugins.zip.tmp: 600 files added (on-disk size: 2006.4 KB)
0001.373 (0) Zip: backup_2017-09-06-1644_wwwanxietyaustraliacomau_ad8720cd124d-plugins.zip.tmp: 700 files added (on-disk size: 2006.4 KB)
0001.380 (0) Zip: backup_2017-09-06-1644_wwwanxietyaustraliacomau_ad8720cd124d-plugins.zip.tmp: 800 files added (on-disk size: 2006.4 KB)
0001.387 (0) Zip: backup_2017-09-06-1644_wwwanxietyaustraliacomau_ad8720cd124d-plugins.zip.tmp: 900 files added (on-disk size: 2006.4 KB)
0001.395 (0) Zip: backup_2017-09-06-1644_wwwanxietyaustraliacomau_ad8720cd124d-plugins.zip.tmp: 1000 files added (on-disk size: 2006.4 KB)
0001.396 (0) Adding batch to zip file (UpdraftPlus_ZipArchive): over 500 files added on this batch (3.9 MB, 3199 files batched, 501 (1002) added so far); re-opening (prior size: 2006.4 KB)
0002.076 (0) Zip: backup_2017-09-06-1644_wwwanxietyaustraliacomau_ad8720cd124d-plugins.zip.tmp: 1100 files added (on-disk size: 3299.2 KB)
0002.084 (0) Zip: backup_2017-09-06-1644_wwwanxietyaustraliacomau_ad8720cd124d-plugins.zip.tmp: 1200 files added (on-disk size: 3299.2 KB)
0002.093 (0) Zip: backup_2017-09-06-1644_wwwanxietyaustraliacomau_ad8720cd124d-plugins.zip.tmp: 1300 files added (on-disk size: 3299.2 KB)
0002.101 (0) Zip: backup_2017-09-06-1644_wwwanxietyaustraliacomau_ad8720cd124d-plugins.zip.tmp: 1400 files added (on-disk size: 3299.2 KB)
0002.108 (0) Zip: backup_2017-09-06-1644_wwwanxietyaustraliacomau_ad8720cd124d-plugins.zip.tmp: 1500 files added (on-disk size: 3299.2 KB)
0002.109 (0) Adding batch to zip file (UpdraftPlus_ZipArchive): over 500 files added on this batch (15.2 MB, 3199 files batched, 501 (1503) added so far); re-opening (prior size: 3299.2 KB)
0004.756 (0) Zip: backup_2017-09-06-1644_wwwanxietyaustraliacomau_ad8720cd124d-plugins.zip.tmp: 1600 files added (on-disk size: 7244.9 KB)
0004.828 (0) Zip: backup_2017-09-06-1644_wwwanxietyaustraliacomau_ad8720cd124d-plugins.zip.tmp: 1700 files added (on-disk size: 7244.9 KB)
0004.837 (0) Zip: backup_2017-09-06-1644_wwwanxietyaustraliacomau_ad8720cd124d-plugins.zip.tmp: 1800 files added (on-disk size: 7244.9 KB)
0004.846 (0) Zip: backup_2017-09-06-1644_wwwanxietyaustraliacomau_ad8720cd124d-plugins.zip.tmp: 1900 files added (on-disk size: 7244.9 KB)
0004.854 (0) Zip: backup_2017-09-06-1644_wwwanxietyaustraliacomau_ad8720cd124d-plugins.zip.tmp: 2000 files added (on-disk size: 7244.9 KB)
0004.855 (0) Adding batch to zip file (UpdraftPlus_ZipArchive): over 500 files added on this batch (15.2 MB, 3199 files batched, 501 (2004) added so far); re-opening (prior size: 7244.9 KB)
0017.417 (0) Zip: backup_2017-09-06-1644_wwwanxietyaustraliacomau_ad8720cd124d-plugins.zip.tmp: 2100 files added (on-disk size: 12355.4 KB)
0019.206 (0) Zip: backup_2017-09-06-1644_wwwanxietyaustraliacomau_ad8720cd124d-plugins.zip.tmp: 2200 files added (on-disk size: 12355.4 KB)
0019.215 (0) Zip: backup_2017-09-06-1644_wwwanxietyaustraliacomau_ad8720cd124d-plugins.zip.tmp: 2300 files added (on-disk size: 12355.4 KB)
0019.225 (0) Zip: backup_2017-09-06-1644_wwwanxietyaustraliacomau_ad8720cd124d-plugins.zip.tmp: 2400 files added (on-disk size: 12355.4 KB)
0019.234 (0) Zip: backup_2017-09-06-1644_wwwanxietyaustraliacomau_ad8720cd124d-plugins.zip.tmp: 2500 files added (on-disk size: 12355.4 KB)
0019.235 (0) Adding batch to zip file (UpdraftPlus_ZipArchive): over 500 files added on this batch (8.1 MB, 3199 files batched, 501 (2505) added so far); re-opening (prior size: 12355.4 KB)
0038.713 (0) Zip: backup_2017-09-06-1644_wwwanxietyaustraliacomau_ad8720cd124d-plugins.zip.tmp: 2600 files added (on-disk size: 14867.9 KB)
0042.860 (0) Adding batch to zip file (UpdraftPlus_ZipArchive): over 2.0 seconds have passed since the last write (1 MB, 96 (2601) files added so far); re-opening (prior size: 14867.9 KB)
0053.725 (0) Zip: backup_2017-09-06-1644_wwwanxietyaustraliacomau_ad8720cd124d-plugins.zip.tmp: 2700 files added (on-disk size: 15387.9 KB)
0054.171 (0) Zip: backup_2017-09-06-1644_wwwanxietyaustraliacomau_ad8720cd124d-plugins.zip.tmp: 2800 files added (on-disk size: 15387.9 KB)
0054.185 (0) Zip: backup_2017-09-06-1644_wwwanxietyaustraliacomau_ad8720cd124d-plugins.zip.tmp: 2900 files added (on-disk size: 15387.9 KB)
0054.208 (0) Zip: backup_2017-09-06-1644_wwwanxietyaustraliacomau_ad8720cd124d-plugins.zip.tmp: 3000 files added (on-disk size: 15387.9 KB)
0054.229 (0) Zip: backup_2017-09-06-1644_wwwanxietyaustraliacomau_ad8720cd124d-plugins.zip.tmp: 3100 files added (on-disk size: 15387.9 KB)
0054.282 (0) Adding batch to zip file (UpdraftPlus_ZipArchive): over 500 files added on this batch (4.2 MB, 3199 files batched, 501 (3102) added so far); re-opening (prior size: 15387.9 KB)
0083.512 (0) Created plugins zip (0) - 17189.4 KB in 83.5 s (205.9 KB/s) (sha1: 22a127064c279a76ddcee139843b159a94f728e4, sha256: 4ab0d642a0db28916055618071be13fdbd6edbe6d92ce15ae420f34bb208c510)
0083.513 (0) Beginning creation of dump of themes (split every: 400 MB)
0083.612 (0) Total entities for the zip file: 58 directories, 583 files (0 skipped as non-modified), 5.3 MB
0083.616 (0) Zip: backup_2017-09-06-1644_wwwanxietyaustraliacomau_ad8720cd124d-themes.zip.tmp: 100 files added (on-disk size: 0 KB)
0083.620 (0) Zip: backup_2017-09-06-1644_wwwanxietyaustraliacomau_ad8720cd124d-themes.zip.tmp: 200 files added (on-disk size: 0 KB)
0083.626 (0) Zip: backup_2017-09-06-1644_wwwanxietyaustraliacomau_ad8720cd124d-themes.zip.tmp: 300 files added (on-disk size: 0 KB)
0083.631 (0) Zip: backup_2017-09-06-1644_wwwanxietyaustraliacomau_ad8720cd124d-themes.zip.tmp: 400 files added (on-disk size: 0 KB)
0083.635 (0) Zip: backup_2017-09-06-1644_wwwanxietyaustraliacomau_ad8720cd124d-themes.zip.tmp: 500 files added (on-disk size: 0 KB)
0083.635 (0) Adding batch to zip file (UpdraftPlus_ZipArchive): over 500 files added on this batch (4.8 MB, 583 files batched, 501 (501) added so far); re-opening (prior size: 0 KB)
0092.380 (0) Created themes zip (0) - 2935.3 KB in 8.9 s (331.1 KB/s) (sha1: 67954f055e591d0c7d91321754244d2f4c96454b, sha256: 10b278ae5aeb45276e8dc0ef2cd1565713594da3c81d9f1c14a54f41f2974377)
0092.382 (0) Exclusion option setting (uploads): backup*,*backups,backwpup*,wp-clone,snapshots
0092.383 (0) Looking for candidates to back up in: /home/anxiety1/public_html/wp-content/uploads
0092.526 (0) finding files: 2017: adding to list (1)
0092.527 (0) finding files: 2016: adding to list (2)
0092.528 (0) finding files: 2014: adding to list (3)
0092.528 (0) finding files: ad: adding to list (4)
0092.529 (0) finding files: 2011: adding to list (5)
0092.530 (0) finding files: 2013: adding to list (6)
0092.530 (0) finding files: wpcf7_captcha: adding to list (7)
0092.531 (0) finding files: 2012: adding to list (8)
0092.532 (0) finding files: 2015: adding to list (9)
0092.532 (0) Beginning creation of dump of uploads (split every: 400 MB)
0093.336 (0) Total entities for the zip file: 69 directories, 348 files (0 skipped as non-modified), 22.5 MB
0093.341 (0) Zip: backup_2017-09-06-1644_wwwanxietyaustraliacomau_ad8720cd124d-uploads.zip.tmp: 100 files added (on-disk size: 0 KB)
0093.345 (0) Zip: backup_2017-09-06-1644_wwwanxietyaustraliacomau_ad8720cd124d-uploads.zip.tmp: 200 files added (on-disk size: 0 KB)
0093.349 (0) Zip: backup_2017-09-06-1644_wwwanxietyaustraliacomau_ad8720cd124d-uploads.zip.tmp: 300 files added (on-disk size: 0 KB)
0120.028 (0) Created uploads zip (0) - 22478.3 KB in 27.5 s (817.5 KB/s) (sha1: 58c7bf21ceb0a7763682ff3bd3f42e6bf59bd20f, sha256: d5e41b384c495750ad560b0fe949ab6bdc7657922510770db08b7c194b85a2f9)
0126.994 (0) Beginning backup of other directories found in the content directory (index: 0)
0126.995 (0) Exclusion option setting (others): upgrade,cache,updraft,backup*,*backups,mysql.sql,debug.log
0126.996 (0) Looking for candidates to back up in: /home/anxiety1/public_html/wp-content
0126.996 (0) finding files: uploads: skipping: this is the uploads directory
0126.996 (0) finding files: error_log: adding to list (1)
0126.997 (0) finding files: plugins: skipping: this is the plugins directory
0126.997 (0) finding files: updraft: skipping: this is the updraft directory
0126.997 (0) finding files: upgrade: skipping: excluded by options
0126.998 (0) finding files: themes: skipping: this is the themes directory
0126.998 (0) finding files: index.php: adding to list (2)
0127.000 (0) Total entities for the zip file: 0 directories, 2 files (0 skipped as non-modified), 0 MB
0127.044 (0) Created others zip (0) - 1.3 KB in 0 s (28.7 KB/s) (sha1: 09721d2fd09efe55481add67f96207893d7c2335, sha256: 87a3952386380e2d59d1315a3e664ff951fe0cfa1bc93fc1d5b180df43a55af0)
0127.047 (0) Saving backup status to database (elements: 8)
0127.048 (0) Beginning creation of database dump (WordPress DB)
0127.055 (0) Table wp_options: Total expected rows (approximate): 11110
0127.320 (0) Table wp_options: Total rows added: 11106 in 0.26 seconds
0127.321 (0) Table wp_options: finishing file (backup_2017-09-06-1644_wwwanxietyaustraliacomau_ad8720cd124d-db-table-wp_options.table.gz - 174.6 KB)
0127.323 (0) Table wp_users: Total expected rows (approximate): 4
0127.324 (0) Table wp_users: Total rows added: 4 in 0.00 seconds
0127.325 (0) Table wp_users: finishing file (backup_2017-09-06-1644_wwwanxietyaustraliacomau_ad8720cd124d-db-table-wp_users.table.gz - 0.7 KB)
0127.327 (0) Table wp_usermeta: Total expected rows (approximate): 111
0127.329 (0) Table wp_usermeta: Total rows added: 111 in 0.00 seconds
0127.330 (0) Table wp_usermeta: finishing file (backup_2017-09-06-1644_wwwanxietyaustraliacomau_ad8720cd124d-db-table-wp_usermeta.table.gz - 2.2 KB)
0127.331 (0) Table wp_commentmeta: Total expected rows (approximate): 80
0127.334 (0) Table wp_commentmeta: Total rows added: 80 in 0.00 seconds
0127.334 (0) Table wp_commentmeta: finishing file (backup_2017-09-06-1644_wwwanxietyaustraliacomau_ad8720cd124d-db-table-wp_commentmeta.table.gz - 2 KB)
0127.336 (0) Table wp_comments: Total expected rows (approximate): 27
0127.339 (0) Table wp_comments: Total rows added: 27 in 0.00 seconds
0127.340 (0) Table wp_comments: finishing file (backup_2017-09-06-1644_wwwanxietyaustraliacomau_ad8720cd124d-db-table-wp_comments.table.gz - 6.9 KB)
0127.342 (0) Table wp_links: Total expected rows (approximate): 0
0127.343 (0) Table wp_links: Total rows added: 0 in 0.00 seconds
0127.343 (0) Table wp_links: finishing file (backup_2017-09-06-1644_wwwanxietyaustraliacomau_ad8720cd124d-db-table-wp_links.table.gz - 0.4 KB)
0127.345 (0) Table wp_postmeta: Total expected rows (approximate): 1029
0127.395 (0) Table wp_postmeta: Total rows added: 1029 in 0.05 seconds
0127.395 (0) Table wp_postmeta: finishing file (backup_2017-09-06-1644_wwwanxietyaustraliacomau_ad8720cd124d-db-table-wp_postmeta.table.gz - 18.9 KB)
0127.397 (0) Table wp_posts: Total expected rows (approximate): 1124
0127.800 (0) Table wp_posts: Total rows added: 1124 in 0.40 seconds
0127.801 (0) Table wp_posts: finishing file (backup_2017-09-06-1644_wwwanxietyaustraliacomau_ad8720cd124d-db-table-wp_posts.table.gz - 730.2 KB)
0127.803 (0) Table wp_term_relationships: Total expected rows (approximate): 95
0127.805 (0) Table wp_term_relationships: Total rows added: 95 in 0.00 seconds
0127.805 (0) Table wp_term_relationships: finishing file (backup_2017-09-06-1644_wwwanxietyaustraliacomau_ad8720cd124d-db-table-wp_term_relationships.table.gz - 0.7 KB)
0127.807 (0) Table wp_term_taxonomy: Total expected rows (approximate): 44
0127.809 (0) Table wp_term_taxonomy: Total rows added: 44 in 0.00 seconds
0127.809 (0) Table wp_term_taxonomy: finishing file (backup_2017-09-06-1644_wwwanxietyaustraliacomau_ad8720cd124d-db-table-wp_term_taxonomy.table.gz - 0.8 KB)
0127.811 (0) Table wp_terms: Total expected rows (approximate): 44
0127.813 (0) Table wp_terms: Total rows added: 44 in 0.00 seconds
0127.813 (0) Table wp_terms: finishing file (backup_2017-09-06-1644_wwwanxietyaustraliacomau_ad8720cd124d-db-table-wp_terms.table.gz - 1 KB)
0127.815 (0) Table wp_booking: Total expected rows (approximate): 2
0127.825 (0) Table wp_booking: Total rows added: 2 in 0.01 seconds
0127.826 (0) Table wp_booking: finishing file (backup_2017-09-06-1644_wwwanxietyaustraliacomau_ad8720cd124d-db-table-wp_booking.table.gz - 0.6 KB)
0127.828 (0) Table wp_bookingdates: Total expected rows (approximate): 4
0127.829 (0) Table wp_bookingdates: Total rows added: 4 in 0.00 seconds
0127.829 (0) Table wp_bookingdates: finishing file (backup_2017-09-06-1644_wwwanxietyaustraliacomau_ad8720cd124d-db-table-wp_bookingdates.table.gz - 0.4 KB)
0127.831 (0) Table wp_redirection_404: Total expected rows (approximate): 173007
0127.832 (0) [Warning] Table wp_redirection_404 has very many rows (173007) - we hope your web hosting company gives you enough resources to dump out that table in the backup If not, you will need to either remove data from this table, or contact your hosting company to request more resources.
0142.162 (0) Table wp_redirection_404: Total rows added: 173007 in 14.33 seconds
0142.164 (0) Table wp_redirection_404: finishing file (backup_2017-09-06-1644_wwwanxietyaustraliacomau_ad8720cd124d-db-table-wp_redirection_404.table.gz - 3187.1 KB)
0142.166 (0) Table wp_redirection_groups: Total expected rows (approximate): 2
0142.167 (0) Table wp_redirection_groups: Total rows added: 2 in 0.00 seconds
0142.168 (0) Table wp_redirection_groups: finishing file (backup_2017-09-06-1644_wwwanxietyaustraliacomau_ad8720cd124d-db-table-wp_redirection_groups.table.gz - 0.4 KB)
0142.171 (0) Table wp_redirection_items: Total expected rows (approximate): 54
0142.176 (0) Table wp_redirection_items: Total rows added: 54 in 0.00 seconds
0142.177 (0) Table wp_redirection_items: finishing file (backup_2017-09-06-1644_wwwanxietyaustraliacomau_ad8720cd124d-db-table-wp_redirection_items.table.gz - 2.2 KB)
0142.179 (0) Table wp_redirection_logs: Total expected rows (approximate): 6779
0142.667 (0) Table wp_redirection_logs: Total rows added: 6779 in 0.49 seconds
0142.668 (0) Table wp_redirection_logs: finishing file (backup_2017-09-06-1644_wwwanxietyaustraliacomau_ad8720cd124d-db-table-wp_redirection_logs.table.gz - 142.7 KB)
0142.670 (0) Table wp_redirection_modules: Total expected rows (approximate): 2
0142.671 (0) Table wp_redirection_modules: Total rows added: 2 in 0.00 seconds
0142.672 (0) Table wp_redirection_modules: finishing file (backup_2017-09-06-1644_wwwanxietyaustraliacomau_ad8720cd124d-db-table-wp_redirection_modules.table.gz - 0.4 KB)
0142.674 (0) Table wp_wfBadLeechers: Total expected rows (approximate): 23
0142.691 (0) Table wp_wfBadLeechers: Total rows added: 23 in 0.02 seconds
0142.691 (0) Table wp_wfBadLeechers: finishing file (backup_2017-09-06-1644_wwwanxietyaustraliacomau_ad8720cd124d-db-table-wp_wfBadLeechers.table.gz - 0.5 KB)
0142.693 (0) Table wp_wfBlocks: Total expected rows (approximate): 0
0142.694 (0) Table wp_wfBlocks: Total rows added: 0 in 0.00 seconds
0142.694 (0) Table wp_wfBlocks: finishing file (backup_2017-09-06-1644_wwwanxietyaustraliacomau_ad8720cd124d-db-table-wp_wfBlocks.table.gz - 0.3 KB)
0142.696 (0) Table wp_wfBlocksAdv: Total expected rows (approximate): 0
0142.697 (0) Table wp_wfBlocksAdv: Total rows added: 0 in 0.00 seconds
0142.697 (0) Table wp_wfBlocksAdv: finishing file (backup_2017-09-06-1644_wwwanxietyaustraliacomau_ad8720cd124d-db-table-wp_wfBlocksAdv.table.gz - 0.3 KB)
0142.699 (0) Table wp_wfConfig: Total expected rows (approximate): 119
0142.707 (0) Table wp_wfConfig: Total rows added: 119 in 0.01 seconds
0142.708 (0) Table wp_wfConfig: finishing file (backup_2017-09-06-1644_wwwanxietyaustraliacomau_ad8720cd124d-db-table-wp_wfConfig.table.gz - 16.3 KB)
0142.710 (0) Table wp_wfCrawlers: Total expected rows (approximate): 0
0142.711 (0) Table wp_wfCrawlers: Total rows added: 0 in 0.00 seconds
0142.711 (0) Table wp_wfCrawlers: finishing file (backup_2017-09-06-1644_wwwanxietyaustraliacomau_ad8720cd124d-db-table-wp_wfCrawlers.table.gz - 0.3 KB)
0142.713 (0) Table wp_wfFileMods: Total expected rows (approximate): 3720
0142.796 (0) Table wp_wfFileMods: Total rows added: 3720 in 0.08 seconds
0142.797 (0) Table wp_wfFileMods: finishing file (backup_2017-09-06-1644_wwwanxietyaustraliacomau_ad8720cd124d-db-table-wp_wfFileMods.table.gz - 167.3 KB)
0142.799 (0) Table wp_wfHits: Total expected rows (approximate): 318362
0142.800 (0) [Warning] Table wp_wfHits has very many rows (318362) - we hope your web hosting company gives you enough resources to dump out that table in the backup If not, you will need to either remove data from this table, or contact your hosting company to request more resources.
0175.869 (0) Table wp_wfHits: Total rows added: 318363 in 33.07 seconds
0175.871 (0) Table wp_wfHits: finishing file (backup_2017-09-06-1644_wwwanxietyaustraliacomau_ad8720cd124d-db-table-wp_wfHits.table.gz - 9197.3 KB)
0175.873 (0) Table wp_wfHoover: Total expected rows (approximate): 3
0175.881 (0) Table wp_wfHoover: Total rows added: 3 in 0.01 seconds
0175.882 (0) Table wp_wfHoover: finishing file (backup_2017-09-06-1644_wwwanxietyaustraliacomau_ad8720cd124d-db-table-wp_wfHoover.table.gz - 0.4 KB)
0175.884 (0) Table wp_wfIssues: Total expected rows (approximate): 0
0175.885 (0) Table wp_wfIssues: Total rows added: 0 in 0.00 seconds
0175.885 (0) Table wp_wfIssues: finishing file (backup_2017-09-06-1644_wwwanxietyaustraliacomau_ad8720cd124d-db-table-wp_wfIssues.table.gz - 0.4 KB)
0175.887 (0) Table wp_wfLeechers: Total expected rows (approximate): 239675
0175.888 (0) [Warning] Table wp_wfLeechers has very many rows (239675) - we hope your web hosting company gives you enough resources to dump out that table in the backup If not, you will need to either remove data from this table, or contact your hosting company to request more resources.
0180.384 (0) Table wp_wfLeechers: Total rows added: 239676 in 4.50 seconds
0180.385 (0) Table wp_wfLeechers: finishing file (backup_2017-09-06-1644_wwwanxietyaustraliacomau_ad8720cd124d-db-table-wp_wfLeechers.table.gz - 1454.7 KB)
0180.387 (0) Table wp_wfLockedOut: Total expected rows (approximate): 0
0180.388 (0) Table wp_wfLockedOut: Total rows added: 0 in 0.00 seconds
0180.389 (0) Table wp_wfLockedOut: finishing file (backup_2017-09-06-1644_wwwanxietyaustraliacomau_ad8720cd124d-db-table-wp_wfLockedOut.table.gz - 0.3 KB)
0180.391 (0) Table wp_wfLocs: Total expected rows (approximate): 0
0180.392 (0) Table wp_wfLocs: Total rows added: 0 in 0.00 seconds
0180.393 (0) Table wp_wfLocs: finishing file (backup_2017-09-06-1644_wwwanxietyaustraliacomau_ad8720cd124d-db-table-wp_wfLocs.table.gz - 0.3 KB)
0180.394 (0) Table wp_wfLogins: Total expected rows (approximate): 543599
0180.395 (0) [Warning] Table wp_wfLogins has very many rows (543599) - we hope your web hosting company gives you enough resources to dump out that table in the backup If not, you will need to either remove data from this table, or contact your hosting company to request more resources.
0224.661 (0) Table wp_wfLogins: Total rows added: 543599 in 44.26 seconds
0224.662 (0) Table wp_wfLogins: finishing file (backup_2017-09-06-1644_wwwanxietyaustraliacomau_ad8720cd124d-db-table-wp_wfLogins.table.gz - 5626.4 KB)
0224.664 (0) Table wp_wfNet404s: Total expected rows (approximate): 0
0224.666 (0) Table wp_wfNet404s: Total rows added: 0 in 0.00 seconds
0224.666 (0) Table wp_wfNet404s: finishing file (backup_2017-09-06-1644_wwwanxietyaustraliacomau_ad8720cd124d-db-table-wp_wfNet404s.table.gz - 0.3 KB)
0224.668 (0) Table wp_wfReverseCache: Total expected rows (approximate): 3
0224.669 (0) Table wp_wfReverseCache: Total rows added: 3 in 0.00 seconds
0224.670 (0) Table wp_wfReverseCache: finishing file (backup_2017-09-06-1644_wwwanxietyaustraliacomau_ad8720cd124d-db-table-wp_wfReverseCache.table.gz - 0.4 KB)
0224.672 (0) Table wp_wfScanners: Total expected rows (approximate): 6344
0224.800 (0) Table wp_wfScanners: Total rows added: 6344 in 0.13 seconds
0224.801 (0) Table wp_wfScanners: finishing file (backup_2017-09-06-1644_wwwanxietyaustraliacomau_ad8720cd124d-db-table-wp_wfScanners.table.gz - 41.9 KB)
0224.803 (0) Table wp_wfStatus: Total expected rows (approximate): 7707
0225.122 (0) Table wp_wfStatus: Total rows added: 7707 in 0.32 seconds
0225.123 (0) Table wp_wfStatus: finishing file (backup_2017-09-06-1644_wwwanxietyaustraliacomau_ad8720cd124d-db-table-wp_wfStatus.table.gz - 109.1 KB)
0225.125 (0) Table wp_wfThrottleLog: Total expected rows (approximate): 57
0225.150 (0) Table wp_wfThrottleLog: Total rows added: 57 in 0.02 seconds
0225.150 (0) Table wp_wfThrottleLog: finishing file (backup_2017-09-06-1644_wwwanxietyaustraliacomau_ad8720cd124d-db-table-wp_wfThrottleLog.table.gz - 1.5 KB)
0225.153 (0) Table wp_wfVulnScanners: Total expected rows (approximate): 0
0225.154 (0) Table wp_wfVulnScanners: Total rows added: 0 in 0.00 seconds
0225.154 (0) Table wp_wfVulnScanners: finishing file (backup_2017-09-06-1644_wwwanxietyaustraliacomau_ad8720cd124d-db-table-wp_wfVulnScanners.table.gz - 0.3 KB)
0225.156 (0) backup_2017-09-06-1644_wwwanxietyaustraliacomau_ad8720cd124d-db-table-wp_options.table.gz (1/37): adding to final database dump
0225.225 (0) backup_2017-09-06-1644_wwwanxietyaustraliacomau_ad8720cd124d-db-table-wp_users.table.gz (2/37): adding to final database dump
0225.225 (0) backup_2017-09-06-1644_wwwanxietyaustraliacomau_ad8720cd124d-db-table-wp_usermeta.table.gz (3/37): adding to final database dump
0225.227 (0) backup_2017-09-06-1644_wwwanxietyaustraliacomau_ad8720cd124d-db-table-wp_commentmeta.table.gz (4/37): adding to final database dump
0225.228 (0) backup_2017-09-06-1644_wwwanxietyaustraliacomau_ad8720cd124d-db-table-wp_comments.table.gz (5/37): adding to final database dump
0225.230 (0) backup_2017-09-06-1644_wwwanxietyaustraliacomau_ad8720cd124d-db-table-wp_links.table.gz (6/37): adding to final database dump
0225.230 (0) backup_2017-09-06-1644_wwwanxietyaustraliacomau_ad8720cd124d-db-table-wp_postmeta.table.gz (7/37): adding to final database dump
0225.274 (0) backup_2017-09-06-1644_wwwanxietyaustraliacomau_ad8720cd124d-db-table-wp_posts.table.gz (8/37): adding to final database dump
0225.497 (0) backup_2017-09-06-1644_wwwanxietyaustraliacomau_ad8720cd124d-db-table-wp_term_relationships.table.gz (9/37): adding to final database dump
0225.498 (0) backup_2017-09-06-1644_wwwanxietyaustraliacomau_ad8720cd124d-db-table-wp_term_taxonomy.table.gz (10/37): adding to final database dump
0225.499 (0) backup_2017-09-06-1644_wwwanxietyaustraliacomau_ad8720cd124d-db-table-wp_terms.table.gz (11/37): adding to final database dump
0225.500 (0) backup_2017-09-06-1644_wwwanxietyaustraliacomau_ad8720cd124d-db-table-wp_booking.table.gz (12/37): adding to final database dump
0225.500 (0) backup_2017-09-06-1644_wwwanxietyaustraliacomau_ad8720cd124d-db-table-wp_bookingdates.table.gz (13/37): adding to final database dump
0225.501 (0) backup_2017-09-06-1644_wwwanxietyaustraliacomau_ad8720cd124d-db-table-wp_redirection_404.table.gz (14/37): adding to final database dump
0227.518 (0) backup_2017-09-06-1644_wwwanxietyaustraliacomau_ad8720cd124d-db-table-wp_redirection_groups.table.gz (15/37): adding to final database dump
0227.518 (0) backup_2017-09-06-1644_wwwanxietyaustraliacomau_ad8720cd124d-db-table-wp_redirection_items.table.gz (16/37): adding to final database dump
0227.520 (0) backup_2017-09-06-1644_wwwanxietyaustraliacomau_ad8720cd124d-db-table-wp_redirection_logs.table.gz (17/37): adding to final database dump
0227.612 (0) backup_2017-09-06-1644_wwwanxietyaustraliacomau_ad8720cd124d-db-table-wp_redirection_modules.table.gz (18/37): adding to final database dump
0227.613 (0) backup_2017-09-06-1644_wwwanxietyaustraliacomau_ad8720cd124d-db-table-wp_wfBadLeechers.table.gz (19/37): adding to final database dump
0227.614 (0) backup_2017-09-06-1644_wwwanxietyaustraliacomau_ad8720cd124d-db-table-wp_wfBlocks.table.gz (20/37): adding to final database dump
0227.614 (0) backup_2017-09-06-1644_wwwanxietyaustraliacomau_ad8720cd124d-db-table-wp_wfBlocksAdv.table.gz (21/37): adding to final database dump
0227.615 (0) backup_2017-09-06-1644_wwwanxietyaustraliacomau_ad8720cd124d-db-table-wp_wfConfig.table.gz (22/37): adding to final database dump
0227.618 (0) backup_2017-09-06-1644_wwwanxietyaustraliacomau_ad8720cd124d-db-table-wp_wfCrawlers.table.gz (23/37): adding to final database dump
0227.619 (0) backup_2017-09-06-1644_wwwanxietyaustraliacomau_ad8720cd124d-db-table-wp_wfFileMods.table.gz (24/37): adding to final database dump
0227.688 (0) backup_2017-09-06-1644_wwwanxietyaustraliacomau_ad8720cd124d-db-table-wp_wfHits.table.gz (25/37): adding to final database dump
0233.413 (0) backup_2017-09-06-1644_wwwanxietyaustraliacomau_ad8720cd124d-db-table-wp_wfHoover.table.gz (26/37): adding to final database dump
0233.414 (0) backup_2017-09-06-1644_wwwanxietyaustraliacomau_ad8720cd124d-db-table-wp_wfIssues.table.gz (27/37): adding to final database dump
0233.415 (0) backup_2017-09-06-1644_wwwanxietyaustraliacomau_ad8720cd124d-db-table-wp_wfLeechers.table.gz (28/37): adding to final database dump
0235.607 (0) backup_2017-09-06-1644_wwwanxietyaustraliacomau_ad8720cd124d-db-table-wp_wfLockedOut.table.gz (29/37): adding to final database dump
0235.608 (0) backup_2017-09-06-1644_wwwanxietyaustraliacomau_ad8720cd124d-db-table-wp_wfLocs.table.gz (30/37): adding to final database dump
0235.608 (0) backup_2017-09-06-1644_wwwanxietyaustraliacomau_ad8720cd124d-db-table-wp_wfLogins.table.gz (31/37): adding to final database dump
0240.783 (0) backup_2017-09-06-1644_wwwanxietyaustraliacomau_ad8720cd124d-db-table-wp_wfNet404s.table.gz (32/37): adding to final database dump
0240.784 (0) backup_2017-09-06-1644_wwwanxietyaustraliacomau_ad8720cd124d-db-table-wp_wfReverseCache.table.gz (33/37): adding to final database dump
0240.785 (0) backup_2017-09-06-1644_wwwanxietyaustraliacomau_ad8720cd124d-db-table-wp_wfScanners.table.gz (34/37): adding to final database dump
0240.817 (0) backup_2017-09-06-1644_wwwanxietyaustraliacomau_ad8720cd124d-db-table-wp_wfStatus.table.gz (35/37): adding to final database dump
0240.909 (0) backup_2017-09-06-1644_wwwanxietyaustraliacomau_ad8720cd124d-db-table-wp_wfThrottleLog.table.gz (36/37): adding to final database dump
0240.910 (0) backup_2017-09-06-1644_wwwanxietyaustraliacomau_ad8720cd124d-db-table-wp_wfVulnScanners.table.gz (37/37): adding to final database dump
0240.910 (0) backup_2017-09-06-1644_wwwanxietyaustraliacomau_ad8720cd124d-db.gz: finished writing out complete database file (20864 KB)
0241.275 (0) Total database tables backed up: 37 (backup_2017-09-06-1644_wwwanxietyaustraliacomau_ad8720cd124d-db.gz, size: 21385290, sha256)
0241.279 (0) backup_2017-09-06-1644_wwwanxietyaustraliacomau_ad8720cd124d-plugins.zip: plugins: This file has not yet been successfully uploaded: will queue
0241.279 (0) backup_2017-09-06-1644_wwwanxietyaustraliacomau_ad8720cd124d-themes.zip: themes: This file has not yet been successfully uploaded: will queue
0241.280 (0) backup_2017-09-06-1644_wwwanxietyaustraliacomau_ad8720cd124d-uploads.zip: uploads: This file has not yet been successfully uploaded: will queue
0241.280 (0) backup_2017-09-06-1644_wwwanxietyaustraliacomau_ad8720cd124d-others.zip: others: This file has not yet been successfully uploaded: will queue
0241.280 (0) backup_2017-09-06-1644_wwwanxietyaustraliacomau_ad8720cd124d-db.gz: db: This file has not yet been successfully uploaded: will queue
0241.281 (0) Saving backup history. Total backup size: 62 MB
0241.282 (0) Requesting upload of the files that have not yet been successfully uploaded (5)
0241.284 (0) Cloud backup selection (1/1): none (last)
0241.284 (0) No remote despatch: user chose no remote backup service
0241.285 (0) Recording as successfully uploaded: backup_2017-09-06-1644_wwwanxietyaustraliacomau_ad8720cd124d-plugins.zip (80ae298594180bb8b808a42ae15d7bdf)
0241.288 (0) Recording as successfully uploaded: backup_2017-09-06-1644_wwwanxietyaustraliacomau_ad8720cd124d-themes.zip (0ee16b40750074bf5a5f0a0830d69005)
0241.291 (0) Recording as successfully uploaded: backup_2017-09-06-1644_wwwanxietyaustraliacomau_ad8720cd124d-uploads.zip (9445f73623192cf05011376f28e1255e)
0241.293 (0) Recording as successfully uploaded: backup_2017-09-06-1644_wwwanxietyaustraliacomau_ad8720cd124d-others.zip (b14a0e9c3db7336b22288553857ddab2)
0241.295 (0) Recording as successfully uploaded: backup_2017-09-06-1644_wwwanxietyaustraliacomau_ad8720cd124d-db.gz (c57c4ea794fd327796c841a94fbd2c39)
0241.298 (0) Retain: beginning examination of existing backup sets; user setting: retain_files=2, retain_db=2
0241.299 (0) Number of backup sets in history: 1; groups (db): 1
0241.299 (0) Examining (for databases) backup set with group_id=0, nonce=ad8720cd124d, datestamp=1504680268 (Sep 06 2017 06:44:28)
0241.300 (0) This backup set is the backup set just made, so will not be deleted.
0241.300 (0) Number of backup sets in history: 1; groups (files): 1
0241.300 (0) Examining (for files) backup set with nonce=ad8720cd124d, datestamp=1504680268 (Sep 06 2017 06:44:28)
0241.300 (0) This backup set is the backup set just made, so will not be deleted.
0241.301 (0) This backup set is the backup set just made, so will not be deleted.
0241.301 (0) This backup set is the backup set just made, so will not be deleted.
0241.301 (0) This backup set is the backup set just made, so will not be deleted.
0241.302 (0) This backup set remains non-empty (f=1/d=1); will retain in history
0241.302 (0) Retain: saving new backup history (sets now: 1) and finishing retain operation
0241.303 (0) Resume backup (ad8720cd124d, 0): finish run
0241.304 (0) Decremented the semaphore (fd) by 1
0241.305 (0) Semaphore (fd) unlocked
0241.305 (0) There were no errors in the uploads, so the 'resume' event (1) is being unscheduled
0241.308 (0) No email will/can be sent - the user has not configured an email address.
0241.308 (0) The backup apparently succeeded and is now complete
